class_26th_Oct
…
class_26th_Oct

Adding information from another data frame

neonDivData::neon_sites

# A tibble: 81 × 10
   `Site Name`            siteID `Domain Name` domainID State Latitude Longitude
   <chr>                  <chr>  <chr>         <chr>    <chr>    <dbl>     <dbl>
 1 Little Rock Lake       LIRO   Great Lakes   D05      WI        46.0     -89.7
 2 West St Louis Creek    WLOU   Southern Roc… D13      CO        39.9    -106. 
 3 Pu'u Maka'ala Natural… PUUM   Pacific Trop… D20      HI        19.6    -155. 
 4 Flint River            FLNT   Southeast     D03      GA        31.2     -84.4
 5 McDiffett Creek        MCDI   Prairie Peni… D06      KS        38.9     -96.4
 6 Lewis Run              LEWI   Mid-Atlantic  D02      VA        39.1     -78.0
 7 Blue River             BLUE   Southern Pla… D11      OK        34.4     -96.6
 8 Teakettle 2 Creek      TECR   Pacific Sout… D17      CA        37.0    -119. 
 9 Lower Hop Brook        HOPB   Northeast     D01      MA        42.5     -72.3
10 Martha Creek           MART   Pacific Nort… D16      WA        45.8    -122. 
# ℹ 71 more rows
# ℹ 3 more variables: `Site Type` <chr>, `Site Subtype` <chr>,
#   `Site Host` <chr>
…
(d3 <- tidyr::pivot_longer(iris, -Species))

# A tibble: 600 × 3
   Species name         value
   <fct>   <chr>        <dbl>
 1 setosa  Sepal.Length   5.1
 2 setosa  Sepal.Width    3.5
 3 setosa  Petal.Length   1.4
 4 setosa  Petal.Width    0.2
 5 setosa  Sepal.Length   4.9
 6 setosa  Sepal.Width    3  
 7 setosa  Petal.Length   1.4
 8 setosa  Petal.Width    0.2
 9 setosa  Sepal.Length   4.7
10 setosa  Sepal.Width    3.2
# ℹ 590 more rows
…
